<?xml version="1.0" encoding="utf-8"?>
<!-- Generator: Adobe Illustrator 22.0.1, SVG Export Plug-In . SVG Version: 6.00 Build 0)  -->
<svg version="1.1" id="svg663" xmlns="http://www.w3.org/2000/svg" xmlns:xlink="http://www.w3.org/1999/xlink" x="0px" y="0px"
	 viewBox="0 0 60 60" style="enable-background:new 0 0 60 60;" xml:space="preserve">
<style type="text/css">
	.st0{fill:#262626;}
</style>
<path class="st0" d="M21.2,3.2C21.2,3.2,21.2,3.2,21.2,3.2c0.1,0,0.1,0.1,0.1,0.2c0,0,0,0.1,0,0.1l4.6,12.3c0,0.1,0,0.1,0,0.2
	c-0.6,0.4-0.9,1.3-0.6,2c0.3,0.6,0.8,0.9,1.4,0.9c0.2,0,0.5,0,0.7-0.1c1.6-0.8,1.9-2.6,1.4-4L24.3,2.4c-0.5-1.7-1.7-2.5-3.4-2.4
	c-0.9,0.1-1.5,0.8-1.4,1.7C19.5,2.6,20.3,3.2,21.2,3.2z"/>
<path class="st0" d="M38.5,40.2c-0.3-0.3-0.7-0.5-1.1-0.5c0,0,0,0,0,0c-0.4,0-0.8,0.2-1.1,0.5c-0.3,0.3-0.5,0.5-0.7,0.8
	c-0.3,0.4-0.6,0.6-1.1,1c-0.4,0.3-0.9,0.1-1.2-0.4L20.9,22.9c-0.3-0.5-0.3-1.3,0.1-1.5c0.5-0.3,0.6-0.4,0.9-0.5
	c0.2-0.1,0.6-0.2,1.1-0.4c0.8-0.3,1.2-1.2,0.9-2L17.7,2.4c-0.2-0.4-0.5-0.7-0.9-0.9s-0.9-0.2-1.3,0c-2.1,1-4,2.2-5.7,3.9
	c-1.8,1.8-3.6,4.3-4.3,6c-0.1,0.2-0.1,0.5-0.1,0.7c0.5,6.8,5,17.6,11.3,27c6.2,9.2,14.6,17.8,20.6,20.8c0.2,0.1,0.5,0.2,0.7,0.2h0
	c2.3,0,5.4-1.2,6.6-1.7c2.3-1,4.6-2.4,5.8-3.6c0.3-0.3,0.5-0.7,0.5-1.1s-0.2-0.8-0.5-1.2L38.5,40.2z M43.4,55.4
	c-1.9,0.8-3.8,1.4-5,1.5c-5.4-2.9-13.4-11-19-19.5C13.5,28.5,9.2,18.6,8.6,12.2c0.6-1.2,2-3.1,3.5-4.6c1-1,2.1-1.8,3.3-2.5l5,12.9
	c-0.3,0.1-0.6,0.3-1.1,0.6c-1.9,1.2-2.3,4-1,5.9l12.4,18.6c0.8,1.2,2.1,1.9,3.5,1.9c0.8,0,1.5-0.2,2.2-0.7c0.5-0.3,0.9-0.7,1.2-0.9
	l9.6,9.7C46.1,54,44.8,54.8,43.4,55.4z"/>
<path class="st0" d="M53.8,47.1c0,0-0.1-0.1-0.1-0.1l-9.6-9.4c-1.1-1-3-1.5-4.3-0.2c-0.6,0.6-0.7,1.6-0.1,2.2
	c0.5,0.6,1.5,0.7,2.1,0.2c0,0,0.1,0,0.1,0.1l9.5,9.3c0,0.1,0.1,0.3,0,0.5c-0.4,0.8-0.1,1.7,0.6,2.2c0.2,0.1,0.5,0.2,0.8,0.2
	c0.6,0,1.1-0.3,1.4-0.8C54.8,49.9,54.7,48.2,53.8,47.1z"/>
</svg>
